…
  prob = mean(simulations)
  
  # Return result as a tibble
  tibble(
    group_size = n,
    prob_duplicate = prob
  )
}

result_final = map_dfr(2:50, compute_duplicate_probability)

result_final
```

    ## # A tibble: 49 × 2
    ##    group_size prob_duplicate
    ##         <int>          <dbl>
    ##  1          2         0.0024
    ##  2          3         0.0085
    ##  3          4         0.0167
    ##  4          5         0.0267
    ##  5          6         0.0399
    ##  6          7         0.0521
    ##  7          8         0.0751
    ##  8          9         0.0925
    ##  9         10         0.116 
    ## 10         11         0.139 
    ## # ℹ 39 more rows
…
homicide_summary
```

    ## # A tibble: 51 × 3
    ##    city_state     total_homides total_unsolved
    ##    <chr>                  <int>          <int>
    ##  1 Albuquerque,NM           378            146
    ##  2 Atlanta,GA               973            373
    ##  3 Baltimore,MD            2827           1825
    ##  4 Baton Rouge,LA           424            196
    ##  5 Birmingham,AL            800            347
    ##  6 Boston,MA                614            310
    ##  7 Buffalo,NY               521            319
    ##  8 Charlotte,NC             687            206
    ##  9 Chicago,IL              5535           4073
    ## 10 Cincinnati,OH            694            309
    ## # ℹ 41 more rows
…
homicide_prop_analysis
```

    ## # A tibble: 51 × 4
    ##    city_state     estimate conf.low conf.high
    ##    <chr>             <dbl>    <dbl>     <dbl>
    ##  1 Albuquerque,NM    0.386    0.337     0.438
    ##  2 Atlanta,GA        0.383    0.353     0.415
    ##  3 Baltimore,MD      0.646    0.628     0.663
    ##  4 Baton Rouge,LA    0.462    0.414     0.511
    ##  5 Birmingham,AL     0.434    0.399     0.469
    ##  6 Boston,MA         0.505    0.465     0.545
    ##  7 Buffalo,NY        0.612    0.569     0.654
    ##  8 Charlotte,NC      0.300    0.266     0.336
    ##  9 Chicago,IL        0.736    0.724     0.747
    ## 10 Cincinnati,OH     0.445    0.408     0.483
    ## # ℹ 41 more rows
…
